{
  "project_info": {
    "project_number": "477629027039",
    "firebase_url": "https://sos-app-dfb01.firebaseio.com",
    "project_id": "sos-app-dfb01",
    "storage_bucket": "sos-app-dfb01.appspot.com"
  },
  "client": [
    {
      "client_info": {
        "mobilesdk_app_id": "1:477629027039:android:c497827081cc9d4e9e4f6a",
        "android_client_info": {
          "package_name": "com.bestweb.sos"
        }
      },
      "oauth_client": [
        {
          "client_id": "477629027039-bl0hl4q4necdi20n0u9br0muvkdu7djr.apps.googleusercontent.com",
          "client_type": 1,
          "android_info": {
            "package_name": "com.bestweb.sos",
            "certificate_hash": "4094b6314533032ddd67a163b8385f321f4e6628"
          }
        },
        {
          "client_id": "477629027039-7idgqgv8gurcmq7q728gfvh6fi0gdvvt.apps.googleusercontent.com",
          "client_type": 1,
          "android_info": {
            "package_name": "com.bestweb.sos",
            "certificate_hash": "eac3c42c406025d7fc1d09965e59abca4273b740"
          }
        },
        {
          "client_id": "477629027039-st11sirkqklmg8ru280m5eli48vbrjat.apps.googleusercontent.com",
          "client_type": 3
        }
      ],
      "api_key": [
        {
          "current_key": "AIzaSyCrS0pMtM-kgMNaslzURiMXm02bDdOt3-k"
        }
      ],
      "services": {
        "appinvite_service": {
          "other_platform_oauth_client": [
            {
              "client_id": "477629027039-st11sirkqklmg8ru280m5eli48vbrjat.apps.googleusercontent.com",
              "client_type": 3
            },
            {
              "client_id": "477629027039-sf143eb16p9hnaaol1dqfqrcbksh9st1.apps.googleusercontent.com",
              "client_type": 2,
              "ios_info": {
                "bundle_id": "com.sosios.mobile"
              }
            }
          ]
        }
      }
    },
    {
      "client_info": {
        "mobilesdk_app_id": "1:477629027039:android:4d1d49611076b7849e4f6a",
        "android_client_info": {
          "package_name": "com.sosandroid.mobile"
        }
      },
      "oauth_client": [
        {
          "client_id": "477629027039-me6j1r6u83tt7uaep7nenkfo5o0pfbfv.apps.googleusercontent.com",
          "client_type": 1,
          "android_info": {
            "package_name": "com.sosandroid.mobile",
            "certificate_hash": "98cf5b6d41b04ac3b4c0033f5105bdf3a96416a3"
          }
        },
        {
          "client_id": "477629027039-st11sirkqklmg8ru280m5eli48vbrjat.apps.googleusercontent.com",
          "client_type": 3
        }
      ],
      "api_key": [
        {
          "current_key": "AIzaSyCrS0pMtM-kgMNaslzURiMXm02bDdOt3-k"
        }
      ],
      "services": {
        "appinvite_service": {
          "other_platform_oauth_client": [
            {
              "client_id": "477629027039-st11sirkqklmg8ru280m5eli48vbrjat.apps.googleusercontent.com",
              "client_type": 3
            },
            {
              "client_id": "477629027039-sf143eb16p9hnaaol1dqfqrcbksh9st1.apps.googleusercontent.com",
              "client_type": 2,
              "ios_info": {
                "bundle_id": "com.sosios.mobile"
              }
            }
          ]
        }
      }
    }
  ],
  "configuration_version": "1"
}